timeStamp,elapsed,label,responseCode,responseMessage,threadName,dataType,success,failureMessage,bytes,sentBytes,grpThreads,allThreads,Latency,IdleTime,Connect
1518191233898,200,65/ SR go to login page,200,OK,Thread Group 1-1,text,true,,1434,322,1,1,198,0,121
1518191230252,200,SR Open Login Page,200,"Number of samples in transaction : 1, number of failing samples : 0",Thread Group 1-1,,true,,1434,322,1,1,198,3658,121
1518191236174,6671,73/ SR login,200,OK,Thread Group 1-1,text,true,,5464,1431,1,1,6619,0,12
1518191244754,51,74 / SR reports,200,OK,Thread Group 1-1,text,true,,3511,823,1,1,3,0,0
1518191234110,6722,SR Login,200,"Number of samples in transaction : 2, number of failing samples : 0",Thread Group 1-1,,true,,8975,2254,1,1,6622,3974,12
1518191247248,32,76 SR open risk management,200,OK,Thread Group 1-1,text,true,,6897,432,1,1,32,0,2
1518191244806,32,SR Open Risk Management,200,"Number of samples in transaction : 1, number of failing samples : 0",Thread Group 1-1,,true,,6897,432,1,1,32,2445,2
1518191249681,173,77 SR submit risk with file,200,OK,Thread Group 1-1,text,true,,6980,6047,1,1,172,0,37
1518191247283,173,SR Submit Risk with File Attachement,200,"Number of samples in transaction : 1, number of failing samples : 0",Thread Group 1-1,,true,,6980,6047,1,1,172,2400,37
1518191249857,63,82 / SR  logout,200,OK,Thread Group 1-1,text,true,,2003,820,1,1,38,0,0
1518191251200,21,83 /index.php,200,OK,Thread Group 1-1,text,true,,1364,433,1,1,21,0,0
1518191249857,84,SR Logout,200,"Number of samples in transaction : 2, number of failing samples : 0",Thread Group 1-1,,true,,3367,1253,1,1,59,1285,0
1518191230252,7211,Submit Risk,200,"Number of samples in transaction : 11, number of failing samples : 0",Thread Group 1-1,,true,,27653,10308,1,1,7083,13763,172
1518191252637,24,65/ AA go to login page,200,OK,Thread Group 1-1,text,true,,1365,369,1,1,24,0,2
1518191251226,24,AA Open Login Page,200,"Number of samples in transaction : 1, number of failing samples : 0",Thread Group 1-1,,true,,1365,369,1,1,24,1411,2
1518191252662,6420,73 AA / login asset man,200,OK,Thread Group 1-1,text,true,,5464,1431,1,1,6380,0,0
1518191261009,50,AA 74 /reports,200,OK,Thread Group 1-1,text,true,,3512,823,1,1,4,0,0
1518191252661,6470,AA Login,200,"Number of samples in transaction : 2, number of failing samples : 0",Thread Group 1-1,,true,,8976,2254,1,1,6384,1928,0
1518191262833,24,90 / AA click asset man,200,OK,Thread Group 1-1,text,true,,2285,446,1,1,24,0,2
1518191261060,24,AA Click Asset Management,200,"Number of samples in transaction : 1, number of failing samples : 0",Thread Group 1-1,,true,,2285,446,1,1,24,1773,2
1518191264943,26,91 / AA click add asset,200,OK,Thread Group 1-1,text,true,,3285,446,1,1,26,0,1
1518191262858,26,AA click add asset tab on left,200,"Number of samples in transaction : 1, number of failing samples : 0",Thread Group 1-1,,true,,3285,446,1,1,26,2085,1
1518191268571,57,92 / AA add parameters assets,200,OK,Thread Group 1-1,text,true,,3342,684,1,1,57,0,2
1518191264969,57,AA populate asset and click add,200,"Number of samples in transaction : 1, number of failing samples : 0",Thread Group 1-1,,true,,3342,684,1,1,57,3604,2
1518191268629,56,82 / AA logout,200,OK,Thread Group 1-1,text,true,,1934,848,1,1,34,0,0
1518191269739,30,83 /AA index.php,200,OK,Thread Group 1-1,text,true,,1364,414,1,1,30,0,0
1518191268629,86,AA Logout,200,"Number of samples in transaction : 2, number of failing samples : 0",Thread Group 1-1,,true,,3298,1262,1,1,64,1055,0
1518191251226,6687,AA add asset,200,"Number of samples in transaction : 13, number of failing samples : 0",Thread Group 1-1,,true,,22551,5461,1,1,6579,11857,7
1518191272389,24,65/ SR go to login page,200,OK,Thread Group 1-1,text,true,,1365,350,1,1,24,0,1
1518191269775,24,SR Open Login Page,200,"Number of samples in transaction : 1, number of failing samples : 0",Thread Group 1-1,,true,,1365,350,1,1,24,2615,1
1518191275993,6356,73/ SR login,200,OK,Thread Group 1-1,text,true,,5465,1412,1,1,6322,0,4
1518191285475,33,74 / SR reports,200,OK,Thread Group 1-1,text,true,,3513,823,1,1,3,0,1
1518191272414,6389,SR Login,200,"Number of samples in transaction : 2, number of failing samples : 0",Thread Group 1-1,,true,,8978,2235,1,1,6325,6705,5
1518191286700,31,76 SR open risk management,200,OK,Thread Group 1-1,text,true,,6895,432,1,1,30,0,0
1518191285509,31,SR Open Risk Management,200,"Number of samples in transaction : 1, number of failing samples : 0",Thread Group 1-1,,true,,6895,432,1,1,30,1193,0
1518191288070,105,77 SR submit risk with file,200,OK,Thread Group 1-1,text,true,,6980,6105,1,1,104,0,7
1518191286733,105,SR Submit Risk with File Attachement,200,"Number of samples in transaction : 1, number of failing samples : 0",Thread Group 1-1,,true,,6980,6105,1,1,104,1337,7
1518191288176,55,82 / SR  logout,200,OK,Thread Group 1-1,text,true,,1934,848,1,1,34,0,0
1518191290547,23,83 /index.php,200,OK,Thread Group 1-1,text,true,,1365,414,1,1,23,0,1
1518191288176,78,SR Logout,200,"Number of samples in transaction : 2, number of failing samples : 0",Thread Group 1-1,,true,,3299,1262,1,1,57,2316,1
1518191269775,6627,Submit Risk,200,"Number of samples in transaction : 11, number of failing samples : 0",Thread Group 1-1,,true,,27517,10384,1,1,6540,14167,14
1518191293484,194,65/ AA go to login page,200,OK,Thread Group 1-1,text,true,,1365,350,1,1,194,0,2
1518191290571,194,AA Open Login Page,200,"Number of samples in transaction : 1, number of failing samples : 0",Thread Group 1-1,,true,,1365,350,1,1,194,2913,2
1518191293682,6207,73 AA / login asset man,200,OK,Thread Group 1-1,text,true,,5463,1412,1,1,6156,0,0
1518191302780,30,AA 74 /reports,200,OK,Thread Group 1-1,text,true,,3512,823,1,1,4,0,1
1518191293681,6237,AA Login,200,"Number of samples in transaction : 2, number of failing samples : 0",Thread Group 1-1,,true,,8975,2235,1,1,6160,2893,1
1518191305001,206,90 / AA click asset man,200,OK,Thread Group 1-1,text,true,,2285,446,1,1,206,0,1
1518191302811,206,AA Click Asset Management,200,"Number of samples in transaction : 1, number of failing samples : 0",Thread Group 1-1,,true,,2285,446,1,1,206,2191,1
1518191306779,29,91 / AA click add asset,200,OK,Thread Group 1-1,text,true,,3282,446,1,1,29,0,0
1518191305208,29,AA click add asset tab on left,200,"Number of samples in transaction : 1, number of failing samples : 0",Thread Group 1-1,,true,,3282,446,1,1,29,1572,0
1518191309120,57,92 / AA add parameters assets,200,OK,Thread Group 1-1,text,true,,3340,684,1,1,56,0,1
1518191306809,57,AA populate asset and click add,200,"Number of samples in transaction : 1, number of failing samples : 0",Thread Group 1-1,,true,,3340,684,1,1,56,2311,1
1518191309182,95,82 / AA logout,200,OK,Thread Group 1-1,text,true,,1934,848,1,1,69,0,0
1518191312090,26,83 /AA index.php,200,OK,Thread Group 1-1,text,true,,1365,414,1,1,26,0,1
1518191309182,121,AA Logout,200,"Number of samples in transaction : 2, number of failing samples : 0",Thread Group 1-1,,true,,3299,1262,1,1,95,2821,1
1518191290571,6844,AA add asset,200,"Number of samples in transaction : 13, number of failing samples : 0",Thread Group 1-1,,true,,22546,5423,1,1,6740,14709,6
1518191313964,26,65/ SR go to login page,200,OK,Thread Group 1-1,text,true,,1364,350,1,1,26,0,0
1518191312124,27,SR Open Login Page,200,"Number of samples in transaction : 1, number of failing samples : 0",Thread Group 1-1,,true,,1364,350,1,1,26,1840,0
1518191315153,6528,73/ SR login,200,OK,Thread Group 1-1,text,true,,5464,1412,1,1,6488,0,2
1518191325422,34,74 / SR reports,200,OK,Thread Group 1-1,text,true,,3512,823,1,1,5,0,3
1518191313991,6562,SR Login,200,"Number of samples in transaction : 2, number of failing samples : 0",Thread Group 1-1,,true,,8976,2235,1,1,6493,4903,5
1518191327038,32,76 SR open risk management,200,OK,Thread Group 1-1,text,true,,6896,432,1,1,31,0,0
1518191325457,32,SR Open Risk Management,200,"Number of samples in transaction : 1, number of failing samples : 0",Thread Group 1-1,,true,,6896,432,1,1,31,1582,0
1518191330137,130,77 SR submit risk with file,200,OK,Thread Group 1-1,text,true,,6977,6395,1,1,129,0,9
1518191327071,130,SR Submit Risk with File Attachement,200,"Number of samples in transaction : 1, number of failing samples : 0",Thread Group 1-1,,true,,6977,6395,1,1,129,3066,9
1518191330268,56,82 / SR  logout,200,OK,Thread Group 1-1,text,true,,1934,848,1,1,34,0,0
1518191333123,21,83 /index.php,200,OK,Thread Group 1-1,text,true,,1365,414,1,1,21,0,1
1518191330268,77,SR Logout,200,"Number of samples in transaction : 2, number of failing samples : 0",Thread Group 1-1,,true,,3299,1262,1,1,55,2800,1
1518191312124,6827,Submit Risk,200,"Number of samples in transaction : 11, number of failing samples : 0",Thread Group 1-1,,true,,27512,10674,1,1,6734,14193,15
1518191335251,22,65/ AA go to login page,200,OK,Thread Group 1-1,text,true,,1365,350,1,1,22,0,2
1518191333145,22,AA Open Login Page,200,"Number of samples in transaction : 1, number of failing samples : 0",Thread Group 1-1,,true,,1365,350,1,1,22,2107,2
1518191335275,6303,73 AA / login asset man,200,OK,Thread Group 1-1,text,true,,5463,1412,1,1,6266,0,0
1518191344712,40,AA 74 /reports,200,OK,Thread Group 1-1,text,true,,3512,823,1,1,10,0,2
1518191335274,6343,AA Login,200,"Number of samples in transaction : 2, number of failing samples : 0",Thread Group 1-1,,true,,8975,2235,1,1,6276,3136,2
1518191345775,26,90 / AA click asset man,200,OK,Thread Group 1-1,text,true,,2282,446,1,1,25,0,0
1518191344753,26,AA Click Asset Management,200,"Number of samples in transaction : 1, number of failing samples : 0",Thread Group 1-1,,true,,2282,446,1,1,25,1024,0
1518191349769,35,91 / AA click add asset,200,OK,Thread Group 1-1,text,true,,3286,446,1,1,35,0,2
1518191345803,35,AA click add asset tab on left,200,"Number of samples in transaction : 1, number of failing samples : 0",Thread Group 1-1,,true,,3286,446,1,1,35,3966,2
1518191351563,53,92 / AA add parameters assets,200,OK,Thread Group 1-1,text,true,,3339,684,1,1,53,0,0
1518191349804,53,AA populate asset and click add,200,"Number of samples in transaction : 1, number of failing samples : 0",Thread Group 1-1,,true,,3339,684,1,1,53,1759,0
1518191351617,65,82 / AA logout,200,OK,Thread Group 1-1,text,true,,1934,848,1,1,46,0,0
1518191353443,21,83 /AA index.php,200,OK,Thread Group 1-1,text,true,,1365,414,1,1,21,0,1
1518191351616,86,AA Logout,200,"Number of samples in transaction : 2, number of failing samples : 0",Thread Group 1-1,,true,,3299,1262,1,1,67,1762,1
1518191333145,6565,AA add asset,200,"Number of samples in transaction : 13, number of failing samples : 0",Thread Group 1-1,,true,,22546,5423,1,1,6478,13754,7
1518191356345,21,65/ SR go to login page,200,OK,Thread Group 1-1,text,true,,1365,350,1,1,21,0,1
1518191353465,21,SR Open Login Page,200,"Number of samples in transaction : 1, number of failing samples : 0",Thread Group 1-1,,true,,1365,350,1,1,21,2880,1
1518191360223,6418,73/ SR login,200,OK,Thread Group 1-1,text,true,,5464,1412,1,1,6385,0,2
1518191368592,31,74 / SR reports,200,OK,Thread Group 1-1,text,true,,3511,823,1,1,4,0,0
1518191356367,6449,SR Login,200,"Number of samples in transaction : 2, number of failing samples : 0",Thread Group 1-1,,true,,8975,2235,1,1,6389,5808,2
1518191371257,31,76 SR open risk management,200,OK,Thread Group 1-1,text,true,,6896,432,1,1,31,0,2
1518191368624,31,SR Open Risk Management,200,"Number of samples in transaction : 1, number of failing samples : 0",Thread Group 1-1,,true,,6896,432,1,1,31,2638,2
1518191373479,155,77 SR submit risk with file,200,OK,Thread Group 1-1,text,true,,6979,6221,1,1,154,0,19
1518191371293,155,SR Submit Risk with File Attachement,200,"Number of samples in transaction : 1, number of failing samples : 0",Thread Group 1-1,,true,,6979,6221,1,1,154,2186,19
1518191373635,62,82 / SR  logout,200,OK,Thread Group 1-1,text,true,,1934,848,1,1,42,0,0
1518191377492,21,83 /index.php,200,OK,Thread Group 1-1,text,true,,1365,414,1,1,21,0,2
1518191373634,83,SR Logout,200,"Number of samples in transaction : 2, number of failing samples : 0",Thread Group 1-1,,true,,3299,1262,1,1,63,3797,2
1518191353465,6739,Submit Risk,200,"Number of samples in transaction : 11, number of failing samples : 0",Thread Group 1-1,,true,,27514,10500,1,1,6658,17309,26
1518191378518,19,65/ AA go to login page,200,OK,Thread Group 1-1,text,true,,1364,350,1,1,19,0,0
1518191377514,19,AA Open Login Page,200,"Number of samples in transaction : 1, number of failing samples : 0",Thread Group 1-1,,true,,1364,350,1,1,19,1005,0
1518191378538,6446,73 AA / login asset man,200,OK,Thread Group 1-1,text,true,,5464,1412,1,1,6408,0,0
1518191387282,32,AA 74 /reports,200,OK,Thread Group 1-1,text,true,,3513,823,1,1,6,0,2
1518191378538,6478,AA Login,200,"Number of samples in transaction : 2, number of failing samples : 0",Thread Group 1-1,,true,,8977,2235,1,1,6414,2299,2
1518191390650,23,90 / AA click asset man,200,OK,Thread Group 1-1,text,true,,2283,446,1,1,23,0,2
1518191387315,23,AA Click Asset Management,200,"Number of samples in transaction : 1, number of failing samples : 0",Thread Group 1-1,,true,,2283,446,1,1,23,3336,2
1518191391860,26,91 / AA click add asset,200,OK,Thread Group 1-1,text,true,,3284,446,1,1,25,0,0
1518191390674,26,AA click add asset tab on left,200,"Number of samples in transaction : 1, number of failing samples : 0",Thread Group 1-1,,true,,3284,446,1,1,25,1187,0
1518191395428,230,92 / AA add parameters assets,200,OK,Thread Group 1-1,text,true,,3343,684,1,1,230,0,1
1518191391887,230,AA populate asset and click add,200,"Number of samples in transaction : 1, number of failing samples : 0",Thread Group 1-1,,true,,3343,684,1,1,230,3542,1
1518191395660,58,82 / AA logout,200,OK,Thread Group 1-1,text,true,,1934,848,1,1,37,0,0
1518191398219,21,83 /AA index.php,200,OK,Thread Group 1-1,text,true,,1365,414,1,1,21,0,3
1518191395659,79,AA Logout,200,"Number of samples in transaction : 2, number of failing samples : 0",Thread Group 1-1,,true,,3299,1262,1,1,58,2502,3
1518191377514,6855,AA add asset,200,"Number of samples in transaction : 13, number of failing samples : 0",Thread Group 1-1,,true,,22550,5423,1,1,6769,13871,8
1518191401197,21,65/ SR go to login page,200,OK,Thread Group 1-1,text,true,,1365,350,1,1,21,0,1
1518191398241,21,SR Open Login Page,200,"Number of samples in transaction : 1, number of failing samples : 0",Thread Group 1-1,,true,,1365,350,1,1,21,2961,1
1518191404708,6318,73/ SR login,200,OK,Thread Group 1-1,text,true,,5465,1412,1,1,6285,0,2
1518191413240,29,74 / SR reports,200,OK,Thread Group 1-1,text,true,,3513,823,1,1,3,0,1
1518191401223,6347,SR Login,200,"Number of samples in transaction : 2, number of failing samples : 0",Thread Group 1-1,,true,,8978,2235,1,1,6288,5700,3
1518191415115,30,76 SR open risk management,200,OK,Thread Group 1-1,text,true,,6894,432,1,1,29,0,0
1518191413270,30,SR Open Risk Management,200,"Number of samples in transaction : 1, number of failing samples : 0",Thread Group 1-1,,true,,6894,432,1,1,29,1845,0
1518191418716,113,77 SR submit risk with file,200,OK,Thread Group 1-1,text,true,,6981,6511,1,1,112,0,16
1518191415145,113,SR Submit Risk with File Attachement,200,"Number of samples in transaction : 1, number of failing samples : 0",Thread Group 1-1,,true,,6981,6511,1,1,112,3571,16
1518191418830,60,82 / SR  logout,200,OK,Thread Group 1-1,text,true,,1934,848,1,1,30,0,0
1518191422413,24,83 /index.php,200,OK,Thread Group 1-1,text,true,,1365,414,1,1,24,0,1
1518191418829,84,SR Logout,200,"Number of samples in transaction : 2, number of failing samples : 0",Thread Group 1-1,,true,,3299,1262,1,1,54,3525,1
1518191398241,6595,Submit Risk,200,"Number of samples in transaction : 11, number of failing samples : 0",Thread Group 1-1,,true,,27517,10790,1,1,6504,17602,21
1518191424888,21,65/ AA go to login page,200,OK,Thread Group 1-1,text,true,,1365,350,1,1,21,0,2
1518191422438,21,AA Open Login Page,200,"Number of samples in transaction : 1, number of failing samples : 0",Thread Group 1-1,,true,,1365,350,1,1,21,2451,2
1518191424910,6349,73 AA / login asset man,200,OK,Thread Group 1-1,text,true,,5462,1412,1,1,6312,0,0
1518191434027,34,AA 74 /reports,200,OK,Thread Group 1-1,text,true,,3511,823,1,1,3,0,2
1518191424910,6383,AA Login,200,"Number of samples in transaction : 2, number of failing samples : 0",Thread Group 1-1,,true,,8973,2235,1,1,6315,2767,2
1518191435195,20,90 / AA click asset man,200,OK,Thread Group 1-1,text,true,,2281,446,1,1,20,0,0
1518191434061,20,AA Click Asset Management,200,"Number of samples in transaction : 1, number of failing samples : 0",Thread Group 1-1,,true,,2281,446,1,1,20,1140,0
1518191436950,25,91 / AA click add asset,200,OK,Thread Group 1-1,text,true,,3285,446,1,1,25,0,1
1518191435221,25,AA click add asset tab on left,200,"Number of samples in transaction : 1, number of failing samples : 0",Thread Group 1-1,,true,,3285,446,1,1,25,1730,1
1518191440893,54,92 / AA add parameters assets,200,OK,Thread Group 1-1,text,true,,3340,684,1,1,54,0,2
1518191436976,54,AA populate asset and click add,200,"Number of samples in transaction : 1, number of failing samples : 0",Thread Group 1-1,,true,,3340,684,1,1,54,3918,2
1518191440948,51,82 / AA logout,200,OK,Thread Group 1-1,text,true,,1934,848,1,1,31,0,0
1518191442874,21,83 /AA index.php,200,OK,Thread Group 1-1,text,true,,1364,414,1,1,21,0,0
1518191440948,72,AA Logout,200,"Number of samples in transaction : 2, number of failing samples : 0",Thread Group 1-1,,true,,3298,1262,1,1,52,1875,0
1518191422438,6575,AA add asset,200,"Number of samples in transaction : 13, number of failing samples : 0",Thread Group 1-1,,true,,22542,5423,1,1,6487,13881,7
1518191445460,19,65/ SR go to login page,200,OK,Thread Group 1-1,text,true,,1365,350,1,1,19,0,1
1518191442896,19,SR Open Login Page,200,"Number of samples in transaction : 1, number of failing samples : 0",Thread Group 1-1,,true,,1365,350,1,1,19,2565,1
1518191447751,6502,73/ SR login,200,OK,Thread Group 1-1,text,true,,5463,1412,1,1,6472,0,3
1518191457369,31,74 / SR reports,200,OK,Thread Group 1-1,text,true,,3511,823,1,1,4,0,3
1518191445480,6533,SR Login,200,"Number of samples in transaction : 2, number of failing samples : 0",Thread Group 1-1,,true,,8974,2235,1,1,6476,5387,6
1518191460173,38,76 SR open risk management,200,OK,Thread Group 1-1,text,true,,6898,432,1,1,38,0,1
1518191457400,38,SR Open Risk Management,200,"Number of samples in transaction : 1, number of failing samples : 0",Thread Group 1-1,,true,,6898,432,1,1,38,2778,1
1518191462836,104,77 SR submit risk with file,200,OK,Thread Group 1-1,text,true,,6980,6453,1,1,103,0,7
1518191460216,104,SR Submit Risk with File Attachement,200,"Number of samples in transaction : 1, number of failing samples : 0",Thread Group 1-1,,true,,6980,6453,1,1,103,2620,7
1518191462941,53,82 / SR  logout,200,OK,Thread Group 1-1,text,true,,1934,848,1,1,33,0,0
1518191464327,20,83 /index.php,200,OK,Thread Group 1-1,text,true,,1364,414,1,1,20,0,0
1518191462940,73,SR Logout,200,"Number of samples in transaction : 2, number of failing samples : 0",Thread Group 1-1,,true,,3298,1262,1,1,53,1334,0
1518191442896,6767,Submit Risk,200,"Number of samples in transaction : 11, number of failing samples : 0",Thread Group 1-1,,true,,27515,10732,1,1,6689,14684,15
1518191467110,21,65/ AA go to login page,200,OK,Thread Group 1-1,text,true,,1365,350,1,1,21,0,3
1518191464347,21,AA Open Login Page,200,"Number of samples in transaction : 1, number of failing samples : 0",Thread Group 1-1,,true,,1365,350,1,1,21,2762,3
1518191467132,6606,73 AA / login asset man,200,OK,Thread Group 1-1,text,true,,5465,1412,1,1,6567,0,0
1518191475449,32,AA 74 /reports,200,OK,Thread Group 1-1,text,true,,3513,823,1,1,2,0,0
1518191467131,6638,AA Login,200,"Number of samples in transaction : 2, number of failing samples : 0",Thread Group 1-1,,true,,8978,2235,1,1,6569,1713,0
1518191478552,26,90 / AA click asset man,200,OK,Thread Group 1-1,text,true,,2284,446,1,1,26,0,2
1518191475482,26,AA Click Asset Management,200,"Number of samples in transaction : 1, number of failing samples : 0",Thread Group 1-1,,true,,2284,446,1,1,26,3070,2
1518191479694,33,91 / AA click add asset,200,OK,Thread Group 1-1,text,true,,3286,446,1,1,33,0,0
1518191478578,33,AA click add asset tab on left,200,"Number of samples in transaction : 1, number of failing samples : 0",Thread Group 1-1,,true,,3286,446,1,1,33,1117,0
1518191483422,95,92 / AA add parameters assets,200,OK,Thread Group 1-1,text,true,,3341,684,1,1,94,0,3
1518191479728,95,AA populate asset and click add,200,"Number of samples in transaction : 1, number of failing samples : 0",Thread Group 1-1,,true,,3341,684,1,1,94,3694,3
1518191483519,78,82 / AA logout,200,OK,Thread Group 1-1,text,true,,1934,848,1,1,58,0,0
1518191486544,27,83 /AA index.php,200,OK,Thread Group 1-1,text,true,,1365,414,1,1,27,0,3
1518191483518,105,AA Logout,200,"Number of samples in transaction : 2, number of failing samples : 0",Thread Group 1-1,,true,,3299,1262,1,1,85,2949,3
1518191464347,6918,AA add asset,200,"Number of samples in transaction : 13, number of failing samples : 0",Thread Group 1-1,,true,,22553,5423,1,1,6828,15306,11
1518191490136,28,65/ SR go to login page,200,OK,Thread Group 1-1,text,true,,1365,350,1,1,28,0,2
1518191486572,28,SR Open Login Page,200,"Number of samples in transaction : 1, number of failing samples : 0",Thread Group 1-1,,true,,1365,350,1,1,28,3572,2
1518191493208,6509,73/ SR login,200,OK,Thread Group 1-1,text,true,,5466,1412,1,1,6462,0,13
1518191501522,29,74 / SR reports,200,OK,Thread Group 1-1,text,true,,3513,823,1,1,3,0,0
1518191490172,6538,SR Login,200,"Number of samples in transaction : 2, number of failing samples : 0",Thread Group 1-1,,true,,8979,2235,1,1,6465,4841,13
1518191503570,231,76 SR open risk management,200,OK,Thread Group 1-1,text,true,,6895,432,1,1,231,0,2
1518191501552,231,SR Open Risk Management,200,"Number of samples in transaction : 1, number of failing samples : 0",Thread Group 1-1,,true,,6895,432,1,1,231,2018,2
1518191506570,114,77 SR submit risk with file,200,OK,Thread Group 1-1,text,true,,6981,6221,1,1,113,0,7
1518191503801,114,SR Submit Risk with File Attachement,200,"Number of samples in transaction : 1, number of failing samples : 0",Thread Group 1-1,,true,,6981,6221,1,1,113,2769,7
1518191506685,57,82 / SR  logout,200,OK,Thread Group 1-1,text,true,,2003,820,1,1,36,0,0
1518191509607,28,83 /index.php,200,OK,Thread Group 1-1,text,true,,1365,433,1,1,28,0,5
1518191506684,85,SR Logout,200,"Number of samples in transaction : 2, number of failing samples : 0",Thread Group 1-1,,true,,3368,1253,1,1,64,2866,5
1518191486572,6996,Submit Risk,200,"Number of samples in transaction : 11, number of failing samples : 0",Thread Group 1-1,,true,,27588,10491,1,1,6901,16066,29
1518191512630,21,65/ AA go to login page,200,OK,Thread Group 1-1,text,true,,1365,369,1,1,21,0,2
1518191509635,21,AA Open Login Page,200,"Number of samples in transaction : 1, number of failing samples : 0",Thread Group 1-1,,true,,1365,369,1,1,21,2995,2
1518191512652,6652,73 AA / login asset man,200,OK,Thread Group 1-1,text,true,,5464,1431,1,1,6575,0,0
1518191521075,30,AA 74 /reports,200,OK,Thread Group 1-1,text,true,,3512,823,1,1,2,0,0
1518191512651,6682,AA Login,200,"Number of samples in transaction : 2, number of failing samples : 0",Thread Group 1-1,,true,,8976,2254,1,1,6577,1778,0
1518191523389,25,90 / AA click asset man,200,OK,Thread Group 1-1,text,true,,2285,446,1,1,25,0,2
1518191521111,25,AA Click Asset Management,200,"Number of samples in transaction : 1, number of failing samples : 0",Thread Group 1-1,,true,,2285,446,1,1,25,2278,2
1518191526304,26,91 / AA click add asset,200,OK,Thread Group 1-1,text,true,,3287,446,1,1,26,0,2
1518191523415,26,AA click add asset tab on left,200,"Number of samples in transaction : 1, number of failing samples : 0",Thread Group 1-1,,true,,3287,446,1,1,26,2889,2
1518191527974,59,92 / AA add parameters assets,200,OK,Thread Group 1-1,text,true,,3343,684,1,1,58,0,0
1518191526330,59,AA populate asset and click add,200,"Number of samples in transaction : 1, number of failing samples : 0",Thread Group 1-1,,true,,3343,684,1,1,58,1644,0
1518191528033,51,82 / AA logout,200,OK,Thread Group 1-1,text,true,,1934,848,1,1,32,0,0
1518191530872,21,83 /AA index.php,200,OK,Thread Group 1-1,text,true,,1365,414,1,1,21,0,2
1518191528033,72,AA Logout,200,"Number of samples in transaction : 2, number of failing samples : 0",Thread Group 1-1,,true,,3299,1262,1,1,53,2790,2
1518191509635,6885,AA add asset,200,"Number of samples in transaction : 13, number of failing samples : 0",Thread Group 1-1,,true,,22555,5461,1,1,6760,14375,8
1518191533446,20,65/ SR go to login page,200,OK,Thread Group 1-1,text,true,,1365,350,1,1,19,0,2
1518191530895,20,SR Open Login Page,200,"Number of samples in transaction : 1, number of failing samples : 0",Thread Group 1-1,,true,,1365,350,1,1,19,2551,2
1518191535605,6521,73/ SR login,200,OK,Thread Group 1-1,text,true,,5465,1412,1,1,6486,0,2
1518191543228,31,74 / SR reports,200,OK,Thread Group 1-1,text,true,,3512,823,1,1,1,0,0
1518191533466,6552,SR Login,200,"Number of samples in transaction : 2, number of failing samples : 0",Thread Group 1-1,,true,,8977,2235,1,1,6487,3241,2
1518191544316,30,76 SR open risk management,200,OK,Thread Group 1-1,text,true,,6898,432,1,1,29,0,2
1518191543260,30,SR Open Risk Management,200,"Number of samples in transaction : 1, number of failing samples : 0",Thread Group 1-1,,true,,6898,432,1,1,29,1056,2
1518191548267,106,77 SR submit risk with file,200,OK,Thread Group 1-1,text,true,,6979,6221,1,1,106,0,4
1518191544346,106,SR Submit Risk with File Attachement,200,"Number of samples in transaction : 1, number of failing samples : 0",Thread Group 1-1,,true,,6979,6221,1,1,106,3922,4
1518191548374,55,82 / SR  logout,200,OK,Thread Group 1-1,text,true,,1934,848,1,1,33,0,0
1518191550369,28,83 /index.php,200,OK,Thread Group 1-1,text,true,,1365,414,1,1,28,0,1
1518191548374,83,SR Logout,200,"Number of samples in transaction : 2, number of failing samples : 0",Thread Group 1-1,,true,,3299,1262,1,1,61,1944,1
1518191530895,6791,Submit Risk,200,"Number of samples in transaction : 11, number of failing samples : 0",Thread Group 1-1,,true,,27518,10500,1,1,6702,12714,11
1518191554049,28,65/ AA go to login page,200,OK,Thread Group 1-1,text,true,,1365,350,1,1,28,0,3
1518191550402,28,AA Open Login Page,200,"Number of samples in transaction : 1, number of failing samples : 0",Thread Group 1-1,,true,,1365,350,1,1,28,3648,3
1518191554078,6482,73 AA / login asset man,200,OK,Thread Group 1-1,text,true,,5464,1412,1,1,6446,0,0
1518191564417,36,AA 74 /reports,200,OK,Thread Group 1-1,text,true,,3513,823,1,1,5,0,3
1518191554078,6518,AA Login,200,"Number of samples in transaction : 2, number of failing samples : 0",Thread Group 1-1,,true,,8977,2235,1,1,6451,3858,3
1518191565616,21,90 / AA click asset man,200,OK,Thread Group 1-1,text,true,,2282,446,1,1,21,0,0
1518191564454,21,AA Click Asset Management,200,"Number of samples in transaction : 1, number of failing samples : 0",Thread Group 1-1,,true,,2282,446,1,1,21,1163,0
1518191566764,27,91 / AA click add asset,200,OK,Thread Group 1-1,text,true,,3286,446,1,1,27,0,2
1518191565638,27,AA click add asset tab on left,200,"Number of samples in transaction : 1, number of failing samples : 0",Thread Group 1-1,,true,,3286,446,1,1,27,1126,2
1518191567874,57,92 / AA add parameters assets,200,OK,Thread Group 1-1,text,true,,3342,684,1,1,57,0,0
1518191566791,57,AA populate asset and click add,200,"Number of samples in transaction : 1, number of failing samples : 0",Thread Group 1-1,,true,,3342,684,1,1,57,1084,0
1518191567932,58,82 / AA logout,200,OK,Thread Group 1-1,text,true,,1934,848,1,1,38,0,0
1518191569759,26,83 /AA index.php,200,OK,Thread Group 1-1,text,true,,1365,414,1,1,26,0,2
1518191567932,84,AA Logout,200,"Number of samples in transaction : 2, number of failing samples : 0",Thread Group 1-1,,true,,3299,1262,1,1,64,1770,2
1518191550402,6735,AA add asset,200,"Number of samples in transaction : 13, number of failing samples : 0",Thread Group 1-1,,true,,22551,5423,1,1,6648,12649,10
1518191572624,26,65/ SR go to login page,200,OK,Thread Group 1-1,text,true,,1365,350,1,1,26,0,2
1518191569787,26,SR Open Login Page,200,"Number of samples in transaction : 1, number of failing samples : 0",Thread Group 1-1,,true,,1365,350,1,1,26,2838,2
1518191573899,6435,73/ SR login,200,OK,Thread Group 1-1,text,true,,5464,1412,1,1,6397,0,0
1518191584266,30,74 / SR reports,200,OK,Thread Group 1-1,text,true,,3513,823,1,1,2,0,1
1518191572650,6465,SR Login,200,"Number of samples in transaction : 2, number of failing samples : 0",Thread Group 1-1,,true,,8977,2235,1,1,6399,5180,1
1518191586725,29,76 SR open risk management,200,OK,Thread Group 1-1,text,true,,6896,432,1,1,29,0,2
1518191584296,29,SR Open Risk Management,200,"Number of samples in transaction : 1, number of failing samples : 0",Thread Group 1-1,,true,,6896,432,1,1,29,2430,2
1518191590671,140,77 SR submit risk with file,200,OK,Thread Group 1-1,text,true,,6980,6105,1,1,139,0,7
1518191586755,140,SR Submit Risk with File Attachement,200,"Number of samples in transaction : 1, number of failing samples : 0",Thread Group 1-1,,true,,6980,6105,1,1,139,3916,7
1518191590812,58,82 / SR  logout,200,OK,Thread Group 1-1,text,true,,1934,848,1,1,36,0,0
1518191592046,19,83 /index.php,200,OK,Thread Group 1-1,text,true,,1364,414,1,1,19,0,0
1518191590811,77,SR Logout,200,"Number of samples in transaction : 2, number of failing samples : 0",Thread Group 1-1,,true,,3298,1262,1,1,55,1177,0
1518191569787,6737,Submit Risk,200,"Number of samples in transaction : 11, number of failing samples : 0",Thread Group 1-1,,true,,27516,10384,1,1,6648,15541,12
1518191593838,22,65/ AA go to login page,200,OK,Thread Group 1-1,text,true,,1365,350,1,1,22,0,2
1518191592065,22,AA Open Login Page,200,"Number of samples in transaction : 1, number of failing samples : 0",Thread Group 1-1,,true,,1365,350,1,1,22,1775,2
1518191593863,6387,73 AA / login asset man,200,OK,Thread Group 1-1,text,true,,5461,1412,1,1,6329,0,0
1518191603942,32,AA 74 /reports,200,OK,Thread Group 1-1,text,true,,3510,823,1,1,3,0,1
1518191593862,6419,AA Login,200,"Number of samples in transaction : 2, number of failing samples : 0",Thread Group 1-1,,true,,8971,2235,1,1,6332,3694,1
1518191605403,34,90 / AA click asset man,200,OK,Thread Group 1-1,text,true,,2283,446,1,1,34,0,0
1518191603975,34,AA Click Asset Management,200,"Number of samples in transaction : 1, number of failing samples : 0",Thread Group 1-1,,true,,2283,446,1,1,34,1429,0
1518191607907,28,91 / AA click add asset,200,OK,Thread Group 1-1,text,true,,3287,446,1,1,27,0,2
1518191605438,28,AA click add asset tab on left,200,"Number of samples in transaction : 1, number of failing samples : 0",Thread Group 1-1,,true,,3287,446,1,1,27,2469,2
1518191609335,89,92 / AA add parameters assets,200,OK,Thread Group 1-1,text,true,,3340,684,1,1,89,0,0
1518191607935,89,AA populate asset and click add,200,"Number of samples in transaction : 1, number of failing samples : 0",Thread Group 1-1,,true,,3340,684,1,1,89,1400,0
1518191609425,71,82 / AA logout,200,OK,Thread Group 1-1,text,true,,1934,848,1,1,45,0,0
1518191612421,24,83 /AA index.php,200,OK,Thread Group 1-1,text,true,,1365,414,1,1,24,0,1
1518191609424,95,AA Logout,200,"Number of samples in transaction : 2, number of failing samples : 0",Thread Group 1-1,,true,,3299,1262,1,1,69,2930,1
1518191592065,6687,AA add asset,200,"Number of samples in transaction : 13, number of failing samples : 0",Thread Group 1-1,,true,,22545,5423,1,1,6573,13697,6
1518191615935,24,65/ SR go to login page,200,OK,Thread Group 1-1,text,true,,1365,350,1,1,23,0,3
1518191612449,24,SR Open Login Page,200,"Number of samples in transaction : 1, number of failing samples : 0",Thread Group 1-1,,true,,1365,350,1,1,23,3485,3
1518191617952,6693,73/ SR login,200,OK,Thread Group 1-1,text,true,,5462,1412,1,1,6662,0,6
1518191625799,31,74 / SR reports,200,OK,Thread Group 1-1,text,true,,3509,823,1,1,2,0,0
1518191615959,6724,SR Login,200,"Number of samples in transaction : 2, number of failing samples : 0",Thread Group 1-1,,true,,8971,2235,1,1,6664,3147,6
1518191627971,29,76 SR open risk management,200,OK,Thread Group 1-1,text,true,,6897,432,1,1,29,0,2
1518191625830,29,SR Open Risk Management,200,"Number of samples in transaction : 1, number of failing samples : 0",Thread Group 1-1,,true,,6897,432,1,1,29,2142,2
1518191630083,132,77 SR submit risk with file,200,OK,Thread Group 1-1,text,true,,6982,6221,1,1,132,0,4
1518191628001,132,SR Submit Risk with File Attachement,200,"Number of samples in transaction : 1, number of failing samples : 0",Thread Group 1-1,,true,,6982,6221,1,1,132,2083,4
1518191630216,57,82 / SR  logout,200,OK,Thread Group 1-1,text,true,,1934,848,1,1,35,0,0
1518191632882,23,83 /index.php,200,OK,Thread Group 1-1,text,true,,1365,414,1,1,23,0,3
1518191630216,80,SR Logout,200,"Number of samples in transaction : 2, number of failing samples : 0",Thread Group 1-1,,true,,3299,1262,1,1,58,2610,3
1518191612449,6989,Submit Risk,200,"Number of samples in transaction : 11, number of failing samples : 0",Thread Group 1-1,,true,,27514,10500,1,1,6906,13467,18
1518191636650,21,65/ AA go to login page,200,OK,Thread Group 1-1,text,true,,1365,350,1,1,21,0,1
1518191632906,21,AA Open Login Page,200,"Number of samples in transaction : 1, number of failing samples : 0",Thread Group 1-1,,true,,1365,350,1,1,21,3744,1
1518191636672,6806,73 AA / login asset man,200,OK,Thread Group 1-1,text,true,,5460,1412,1,1,6775,0,0
1518191644829,28,AA 74 /reports,200,OK,Thread Group 1-1,text,true,,3508,823,1,1,2,0,0
1518191636671,6834,AA Login,200,"Number of samples in transaction : 2, number of failing samples : 0",Thread Group 1-1,,true,,8968,2235,1,1,6777,1352,0
1518191648216,52,90 / AA click asset man,200,OK,Thread Group 1-1,text,true,,2282,446,1,1,52,0,2
1518191644858,52,AA Click Asset Management,200,"Number of samples in transaction : 1, number of failing samples : 0",Thread Group 1-1,,true,,2282,446,1,1,52,3359,2
1518191649813,35,91 / AA click add asset,200,OK,Thread Group 1-1,text,true,,3286,446,1,1,35,0,0
1518191648269,35,AA click add asset tab on left,200,"Number of samples in transaction : 1, number of failing samples : 0",Thread Group 1-1,,true,,3286,446,1,1,35,1545,0
1518191653800,56,92 / AA add parameters assets,200,OK,Thread Group 1-1,text,true,,3343,684,1,1,56,0,2
1518191649849,56,AA populate asset and click add,200,"Number of samples in transaction : 1, number of failing samples : 0",Thread Group 1-1,,true,,3343,684,1,1,56,3950,2
1518191653857,51,82 / AA logout,200,OK,Thread Group 1-1,text,true,,1934,848,1,1,31,0,0
1518191657209,20,83 /AA index.php,200,OK,Thread Group 1-1,text,true,,1365,414,1,1,20,0,1
1518191653856,71,AA Logout,200,"Number of samples in transaction : 2, number of failing samples : 0",Thread Group 1-1,,true,,3299,1262,1,1,51,3302,1
1518191632906,7069,AA add asset,200,"Number of samples in transaction : 13, number of failing samples : 0",Thread Group 1-1,,true,,22543,5423,1,1,6992,17253,6
